love_song
…
stopwords <- read_excel("stop_words_CH.xlsx")

tidy_male <- male_df %>%
  unnest_tokens(output = '', input = '', token = 'regex', pattern = ' ') %>%
  anti_join(get_stopwords(), by = c('' = 'word')) %>%
  anti_join(stopwords, by = c('' = ''))
  
freq_male <- tidy_male %>% 
  group_by() %>% 
  summarize( = n()) %>%
  arrange(desc()) %>%
  print()

## # A tibble: 4,510 x 2
##       
##    <chr> <int>
##  1       180
##  2       158
##  3       138
##  4        77
##  5        68
##  6      59
##  7        48
##  8      47
##  9      46
## 10      42
## # ... with 4,500 more rows

tidy_female <- female_df %>%
  unnest_tokens(output = '', input = '', token = 'regex', pattern = ' ') %>%
  anti_join(get_stopwords(), by = c('' = 'word')) %>%
  anti_join(stopwords, by = c('' = ''))

freq_female <- tidy_female %>% 
  group_by() %>%
  summarize( = n()) %>%
  arrange(desc()) %>%
  print()

## # A tibble: 4,090 x 2
##       
##    <chr> <int>
##  1       119
##  2        75
##  3        69
##  4        67
##  5 away     48
##  6      47
##  7      42
##  8        40
##  9      39
## 10        39
## # ... with 4,080 more rows
…
