love_song
…
                                                                                                                         Ya                                                                                                 

library(tidytext)
library(dplyr)

tidy_love_song <- love_song_df %>%
  unnest_tokens(output = '', input = '', token = 'regex', pattern = ' ')
freq_love_song <- tidy_love_song %>% 
  group_by() %>% 
  summarize( = n()) %>% 
  arrange(desc()) %>%
  print()

## # A tibble: 526 x 2
##       
##    <chr> <int>
##  1        89
##  2        55
##  3        37
##  4      23
##  5        22
##  6        19
##  7      18
##  8      17
##  9        16
## 10        15
## # ... with 516 more rows

tidy_non_love_song <- non_love_song_df %>%
  unnest_tokens(output = '', input = '', token = 'regex', pattern = ' ')
freq_non_love_song <- tidy_non_love_song %>% 
  group_by() %>%
  summarize( = n()) %>%
  arrange(desc()) %>%
  print()

## # A tibble: 596 x 2
##       
##    <chr> <int>
##  1       100
##  2        77
##  3 yeah     41
##  4        34
##  5        21
##  6        20
##  7      20
##  8        16
##  9        16
## 10        16
## # ... with 586 more rows
…
