love_song
…
stopwords <- read_excel('ch_stop_words.xlsx')

tidy_male <- male_df %>%
  unnest_tokens(output = '', input = '', token = 'regex', pattern = ' ') %>%
  anti_join(get_stopwords(), by = c('' = 'word')) %>%
  anti_join(stopwords, by = c('' = ''))
  
freq_male <- tidy_male %>% 
  group_by() %>% 
  summarize( = n()) %>%
  arrange(desc()) %>%
  print()

## # A tibble: 205 x 2
##        
##    <chr>  <int>
##  1 know       7
##  2          7
##  3 get        6
##  4      5
##  5        5
##  6        5
##  7        5
##  8        5
##  9          5
## 10 can        4
## #  with 195 more rows

tidy_female <- female_df %>%
  unnest_tokens(output = '', input = '', token = 'regex', pattern = ' ') %>%
  anti_join(get_stopwords(), by = c('' = 'word')) %>%
  anti_join(stopwords, by = c('' = ''))

freq_female <- tidy_female %>% 
  group_by() %>%
  summarize( = n()) %>%
  arrange(desc()) %>%
  print()

## # A tibble: 72 x 2
##          
##    <chr>    <int>
##  1           26
##  2           17
##  3            9
##  4          9
##  5          6
##  6          4
##  7          3
##  8      3
##  9            3
## 10          3
## #  with 62 more rows
…
